40,78,117,15,27,30,30,15,41,19,46,23,41,19,24,37,50,92,14,43,111,43,91,18,3,5,37,52,63,3,115,7,34,46,36,46,115,15,0,6
1,11,39,7,0,13,17,2,23,14,38,16,10,4,0,0,9,18,8,5,22,10,31,7,8,0,5,19,31,2,36,1,2,9,9,5,7,30,0,6
51,28,101,9,0,59,31,3,75,24,24,14,8,10,7,10,31,48,4,32,46,45,147,16,54,0,6,40,30,5,121,14,6,65,23,18,57,17,0,6
60,69,101,11,0,36,53,2,73,56,24,15,48,7,44,24,39,69,4,48,44,66,86,15,14,12,11,11,40,0,138,5,15,37,37,45,28,18,10,6
20,18,75,7,6,63,90,3,30,19,9,20,32,11,13,19,28,109,2,29,33,80,56,5,24,6,7,31,29,1,48,5,1,35,25,8,34,18,0,6
14,17,59,4,11,45,20,0,27,6,16,10,25,2,3,16,50,30,11,34,65,23,48,18,8,0,7,23,35,0,41,8,5,32,39,24,23,20,0,6
16,65,75,16,8,68,128,1,31,12,17,24,90,8,4,18,38,95,0,27,36,35,54,15,42,0,17,33,36,2,95,5,3,13,21,22,65,15,0,6
10,17,47,9,10,19,16,1,19,5,8,0,3,5,1,10,6,27,0,14,11,17,24,4,9,1,4,17,6,1,45,4,0,11,4,4,11,8,0,6
11,20,88,4,6,24,25,0,27,16,38,14,28,10,20,21,41,16,0,24,36,48,17,3,6,4,6,45,70,9,79,2,8,39,28,19,35,7,0,6
80,29,71,4,4,23,17,0,73,29,55,5,68,7,39,24,51,133,2,26,71,61,43,14,11,1,9,59,13,16,116,4,17,13,74,15,11,5,0,6
34,35,89,11,3,66,30,0,39,17,20,14,24,15,17,25,39,42,2,28,35,45,79,8,32,3,9,40,34,6,103,13,9,38,13,33,36,16,0,6
33,14,70,4,1,45,36,6,42,18,21,14,33,14,8,13,24,58,10,24,37,44,44,5,27,0,15,43,39,5,90,6,24,28,13,17,27,37,0,6
83,80,97,19,1,34,29,4,83,13,17,22,39,19,10,54,29,62,3,55,30,65,136,15,6,0,54,67,24,3,136,13,84,20,10,18,61,50,0,6
47,35,35,6,3,8,9,1,39,7,10,5,13,2,4,28,13,19,5,8,24,22,37,5,16,0,3,37,12,6,95,2,8,33,6,6,15,13,0,6
130,28,125,0,3,20,25,1,69,20,14,40,18,19,59,78,29,89,2,18,65,65,73,2,15,0,13,57,16,1,145,5,4,81,48,16,39,9,2,6
61,17,34,22,1,27,40,0,25,8,12,20,21,1,31,6,13,31,4,11,33,20,61,5,16,1,4,28,11,2,54,3,4,12,3,20,23,12,0,6
18,26,62,27,6,22,17,3,30,18,22,15,16,28,12,21,22,26,4,19,36,10,62,3,24,0,3,47,30,2,70,5,4,57,12,31,51,14,0,6
43,26,64,15,1,40,4,4,39,13,26,27,15,24,4,19,28,23,5,25,28,52,79,11,17,0,2,44,20,3,55,15,4,30,24,29,26,8,0,6
27,58,159,11,8,48,44,3,40,33,28,28,52,18,15,43,37,54,8,62,40,49,125,12,29,0,13,43,47,6,111,4,3,37,26,61,15,24,0,6
38,29,71,10,1,19,24,0,76,30,10,21,18,26,64,1,100,132,4,42,30,86,73,14,52,1,1,66,49,0,77,4,1,39,29,6,33,28,0,6
41,24,64,6,2,24,27,0,53,5,39,20,24,17,5,19,33,35,8,16,32,47,78,13,11,0,39,34,56,2,95,12,33,22,5,11,26,30,0,6
48,21,66,3,35,35,40,2,51,8,13,23,24,25,23,7,39,34,1,34,32,40,74,12,15,2,6,35,28,4,80,12,10,26,22,17,34,11,0,6
47,26,167,12,3,32,61,12,42,16,26,18,47,7,7,11,86,51,6,46,85,61,100,9,27,1,14,32,70,7,139,1,3,38,14,20,32,15,0,6
68,18,118,10,17,29,16,1,41,17,16,8,36,95,7,27,30,67,4,83,32,69,123,5,87,0,11,24,85,1,68,1,8,59,5,20,16,6,0,6
67,4,129,13,5,36,49,28,36,19,27,20,56,9,21,21,32,68,4,26,33,40,119,9,35,0,15,18,32,3,122,6,0,19,19,40,17,14,0,6
21,33,76,12,5,45,22,4,27,35,14,17,19,8,10,12,24,26,8,21,45,24,54,1,10,2,4,36,47,1,67,6,2,16,22,28,17,21,0,6
20,23,120,10,1,26,15,1,24,16,24,15,28,29,12,14,52,32,5,30,51,43,79,8,28,0,16,37,51,2,89,4,1,5,11,19,14,14,0,6
59,26,124,30,4,79,54,6,68,23,20,5,29,17,29,25,78,55,6,54,48,48,115,13,24,8,20,49,61,8,101,17,5,23,27,24,24,23,0,6
26,27,66,8,2,37,28,0,18,12,23,14,6,1,17,14,56,27,4,22,23,59,56,3,7,18,11,48,36,0,56,7,4,31,17,19,27,9,0,6
15,13,77,13,2,35,4,0,24,15,13,13,10,9,12,8,34,25,0,22,49,55,33,12,10,3,5,37,28,3,60,11,8,37,32,13,21,14,1,6
41,20,109,0,0,23,37,1,24,33,39,11,38,8,18,18,50,36,1,31,22,29,64,6,7,1,54,16,69,5,127,1,5,28,23,27,30,16,0,6
16,26,88,4,8,13,8,3,38,11,23,40,13,16,10,62,20,65,4,42,31,18,58,8,36,2,18,40,36,6,44,5,3,6,12,19,14,46,0,6
34,28,91,6,47,31,63,1,43,24,10,26,20,13,14,7,85,26,4,32,45,82,113,12,15,10,8,13,77,5,96,52,7,33,10,16,34,25,1,6
8,0,16,9,0,21,15,0,11,2,8,5,12,4,1,2,15,10,3,4,12,10,20,0,2,3,1,17,18,3,14,1,2,10,8,4,11,3,0,6
121,58,163,20,7,72,55,9,62,44,59,28,47,49,62,39,62,64,10,38,73,50,179,9,28,2,60,116,38,7,174,7,39,96,26,52,113,49,1,6
22,19,59,6,7,36,8,8,36,12,6,6,18,7,5,11,28,22,0,11,18,45,69,0,14,0,6,15,15,2,42,8,5,35,16,26,37,10,0,6
47,45,111,11,32,86,95,4,68,21,34,20,48,13,21,32,42,90,8,38,54,80,112,10,29,1,5,78,47,3,105,3,17,36,32,33,45,37,0,6
13,32,59,2,9,50,23,1,28,13,45,21,9,11,14,12,35,48,0,27,43,30,97,8,31,0,1,30,25,2,75,7,28,22,21,34,32,30,0,6
17,29,93,8,14,11,55,4,73,16,60,38,17,23,9,23,40,43,2,24,73,45,118,5,49,15,28,25,35,9,85,6,27,70,42,35,79,9,0,6
24,27,71,15,5,23,19,5,55,10,16,28,29,16,22,24,36,47,10,16,41,36,69,15,23,0,2,40,22,0,35,3,6,16,27,15,29,16,0,6
103,9,163,12,7,52,28,1,37,12,30,16,25,7,11,11,60,58,0,33,141,57,112,38,34,1,3,23,42,4,121,18,1,22,60,15,16,35,2,6
13,15,66,3,2,46,9,1,33,21,19,28,7,23,9,21,33,48,0,11,33,44,63,8,28,0,6,17,11,14,29,1,3,17,39,7,21,23,0,6
13,18,96,27,4,30,44,9,37,20,28,31,27,17,6,12,29,62,2,12,50,34,84,8,46,0,6,30,35,3,85,4,8,26,27,70,18,41,0,6
61,16,66,7,10,34,33,0,38,5,21,6,8,22,20,8,25,48,3,35,35,20,54,12,34,9,3,17,31,5,100,8,6,42,9,41,25,8,0,6
33,44,86,12,6,48,23,5,53,5,10,8,10,9,14,10,62,35,14,24,46,59,98,8,12,2,17,29,45,3,59,20,1,58,38,30,38,15,0,6
109,20,144,11,29,70,65,1,28,15,64,17,14,7,46,20,57,38,1,16,115,54,110,2,18,1,39,54,63,9,126,27,7,39,19,87,55,21,0,6
32,19,121,10,1,17,40,0,10,6,7,14,7,13,0,26,87,15,28,11,82,12,31,6,6,0,0,48,40,0,133,4,24,11,26,13,35,15,0,6
22,17,114,9,2,38,35,2,37,13,43,20,19,28,5,6,52,48,0,21,53,64,80,11,16,23,6,79,24,0,96,5,9,22,19,26,32,14,0,6
24,18,112,23,4,14,10,3,56,27,31,15,1,18,18,16,79,77,4,23,84,13,76,11,11,1,8,57,38,2,70,18,18,19,62,34,25,45,0,6
52,21,66,22,2,59,34,0,24,35,22,16,20,18,6,23,42,27,0,28,17,20,79,6,14,0,16,65,33,1,80,2,3,13,17,29,15,30,0,6
39,22,63,6,10,17,14,0,20,11,22,11,40,6,16,9,46,27,0,49,46,35,87,12,12,0,65,30,32,13,60,0,2,13,8,12,9,4,0,6
6,5,8,1,0,8,2,0,5,2,3,1,0,0,1,1,6,5,1,3,6,6,9,2,2,0,3,4,7,1,5,2,1,5,4,3,5,0,0,6
9,9,49,2,4,7,16,1,29,12,7,24,12,7,6,1,43,37,2,19,23,33,42,6,13,3,6,15,29,2,43,5,6,22,13,19,24,8,0,6
15,33,58,5,8,34,38,6,30,14,18,21,27,12,1,14,23,26,5,20,22,27,53,8,12,0,8,17,30,2,62,12,4,23,9,36,22,15,0,6
113,70,145,13,19,40,27,6,109,46,4,15,37,10,15,61,33,43,0,43,44,25,130,20,46,1,34,98,65,8,153,16,16,44,5,18,25,23,0,6
57,28,216,14,7,119,43,3,60,45,35,25,78,31,26,27,39,93,4,52,105,77,94,11,21,4,14,41,48,5,133,3,8,65,80,62,64,11,0,6
12,16,33,5,0,37,16,4,21,5,21,13,9,4,4,26,29,27,4,18,31,32,51,8,9,0,7,11,29,2,44,1,7,30,14,12,18,17,0,6
8,24,68,4,7,22,26,8,24,16,7,15,13,11,4,11,30,40,2,11,24,21,66,6,5,0,3,12,29,2,57,5,3,16,8,6,8,3,0,6
68,25,104,11,19,36,23,6,85,70,16,17,58,11,20,20,19,26,0,18,37,33,155,6,70,1,6,19,59,1,151,1,12,22,6,39,17,7,0,6
12,22,47,0,5,32,8,3,28,24,13,10,17,10,19,14,28,27,6,22,15,47,57,2,10,1,7,16,24,1,38,1,1,13,2,15,12,15,0,6
51,17,114,38,0,48,54,5,37,6,22,9,27,18,27,6,78,36,5,16,112,70,114,3,42,15,13,24,25,12,97,10,8,43,61,18,50,10,0,6
30,25,111,17,4,26,36,0,22,15,53,4,16,38,12,40,67,83,1,49,69,47,90,8,32,3,3,69,58,0,110,2,0,10,20,27,18,14,0,6
27,27,83,18,4,28,35,4,68,20,21,31,41,25,13,13,33,19,5,22,34,31,71,4,27,2,9,40,36,5,72,12,14,48,20,22,54,13,0,6
24,29,56,4,13,23,24,4,36,14,8,24,26,9,10,29,34,29,8,11,21,27,89,14,24,0,6,15,26,0,57,8,0,44,10,22,7,16,1,6
44,43,109,19,10,43,48,6,63,31,44,33,30,24,16,35,52,50,1,38,56,52,91,19,36,3,34,47,61,10,97,6,5,31,29,51,41,33,0,6
27,54,93,5,13,37,41,9,64,14,18,13,17,13,16,16,37,65,1,40,55,63,81,10,17,5,14,28,38,10,79,8,4,81,35,17,49,4,0,6
66,100,166,10,3,30,90,0,49,39,63,13,49,10,34,36,64,82,27,53,61,58,109,60,45,0,8,80,42,8,170,3,25,61,27,34,67,9,0,6
17,12,53,9,3,32,2,1,13,9,15,26,10,8,6,9,39,20,2,17,14,29,36,19,8,0,7,31,33,3,50,15,5,24,11,17,29,13,0,6
