9,24,38,4,6,26,12,2,36,10,6,16,23,10,4,9,16,12,0,15,24,24,54,2,11,0,3,16,27,3,41,3,3,6,8,12,2,10,0,20
6,10,60,27,16,11,8,2,27,14,12,10,15,4,11,3,38,10,3,9,24,38,74,26,6,0,6,43,15,3,32,5,4,5,6,15,9,16,0,20
35,36,81,10,7,18,21,6,62,18,22,17,22,14,4,18,51,27,3,40,49,26,83,23,13,1,14,57,45,1,39,5,8,10,9,23,3,36,0,20
29,12,116,13,8,18,14,0,50,41,24,33,18,9,18,20,46,35,2,30,49,35,77,17,8,0,4,32,28,7,52,3,1,36,18,22,20,31,0,20
70,21,67,7,1,13,14,1,40,22,12,5,27,3,17,13,19,21,2,14,30,17,32,10,13,0,76,23,29,9,79,1,12,21,15,14,12,11,0,20
30,25,78,6,5,17,12,2,23,11,33,17,14,15,13,23,42,20,1,37,33,11,78,20,15,1,10,50,42,17,73,17,9,23,13,19,23,32,0,20
7,17,27,7,2,14,10,1,24,9,10,6,10,8,6,6,29,16,0,9,13,15,29,13,7,1,11,18,18,2,28,2,2,3,3,15,3,16,0,20
12,67,73,7,3,8,16,1,65,17,14,6,21,5,5,5,25,12,2,51,42,18,49,3,17,0,8,49,25,4,31,3,0,5,7,9,2,43,0,20
7,10,27,7,4,15,10,0,25,11,13,11,10,5,6,6,22,15,0,12,26,18,32,7,11,0,5,30,16,5,13,0,4,17,9,13,12,9,0,20
19,41,74,8,17,42,18,4,50,15,22,19,14,23,12,13,34,43,1,34,54,46,84,5,27,0,10,48,43,3,76,7,14,17,13,10,20,13,0,20
23,62,119,19,13,26,17,12,79,31,22,29,24,23,14,37,51,48,8,57,65,36,99,20,20,1,31,62,70,8,89,10,6,16,25,14,11,43,0,20
11,38,130,13,9,26,17,10,32,38,38,30,14,18,10,16,55,34,4,34,48,48,91,19,30,1,17,48,62,4,84,9,6,17,28,28,9,32,0,20
13,34,71,4,4,17,17,3,35,29,15,11,10,16,4,20,15,23,0,11,34,18,52,1,17,0,12,18,32,3,63,6,3,14,8,7,6,16,1,20
22,22,41,14,7,16,17,4,34,10,7,21,5,7,9,10,31,13,0,18,33,24,45,11,15,0,11,26,40,9,59,6,9,32,3,18,21,11,0,20
20,24,100,9,10,28,16,5,32,19,20,23,12,14,15,15,22,26,6,27,35,21,77,8,19,0,19,35,52,4,54,5,12,9,14,18,12,29,1,20
8,46,146,16,12,20,27,7,48,28,33,18,16,22,7,24,52,32,2,33,54,31,75,25,8,0,13,56,59,15,70,18,8,3,17,20,0,36,0,20
12,55,93,5,34,17,11,2,92,33,23,27,25,13,22,10,22,46,1,43,39,36,132,5,28,1,21,66,36,0,49,4,7,7,16,29,7,35,0,20
12,11,62,5,3,29,5,4,29,8,14,14,10,10,4,14,18,18,5,18,23,34,44,6,15,0,9,21,41,4,44,2,11,16,8,9,17,12,0,20
7,17,64,3,4,8,11,4,25,14,11,6,6,6,8,15,21,23,2,10,29,16,41,9,10,0,14,13,18,1,39,5,1,8,6,19,2,8,0,20
6,25,89,7,9,35,22,2,40,18,21,11,9,12,12,5,37,38,1,22,31,37,69,12,18,1,11,31,36,6,63,4,6,16,14,16,14,22,0,20
8,18,56,11,3,19,12,3,31,19,11,19,14,8,11,23,43,16,3,17,26,21,50,15,12,0,11,28,30,3,37,7,3,4,5,12,1,31,0,20
30,27,96,10,7,40,21,1,26,14,15,8,11,15,6,13,30,39,4,20,43,32,62,18,10,1,4,28,29,2,86,5,3,42,19,34,26,11,0,20
5,40,41,5,9,20,17,3,46,18,16,24,7,13,9,6,22,14,2,12,20,15,68,8,25,0,7,24,30,1,47,1,2,5,9,25,3,19,0,20
9,13,30,5,3,7,10,0,10,6,10,8,9,8,6,6,18,13,0,13,22,8,23,11,5,0,4,12,23,1,18,5,2,14,7,5,8,11,0,20
2,16,34,2,2,32,4,0,10,8,16,4,6,2,0,26,28,8,0,6,8,40,26,2,2,0,12,4,20,2,18,6,2,20,8,16,18,22,0,20
4,16,47,6,4,8,6,2,27,10,7,17,14,15,8,23,18,17,0,10,26,20,31,4,8,1,4,17,18,7,26,2,6,6,6,9,2,12,0,20
18,37,119,17,8,27,27,3,53,22,30,28,8,19,14,35,44,44,7,31,45,31,75,23,11,0,10,43,61,18,88,7,2,14,16,18,4,46,0,20
8,46,146,16,12,20,27,7,48,28,33,18,16,22,7,24,52,32,2,33,54,31,75,25,8,0,13,56,59,15,70,18,8,3,17,20,0,36,0,20
14,30,228,24,7,53,18,7,81,41,30,62,12,47,5,19,42,39,18,86,80,92,113,18,64,2,17,37,65,7,79,8,8,16,24,52,12,31,1,20
9,18,74,8,6,19,7,7,28,18,24,23,4,13,7,13,26,27,0,17,37,28,50,8,8,0,11,29,38,3,46,6,5,16,12,16,14,13,0,20
6,21,39,9,4,22,4,0,33,8,11,5,7,10,2,4,18,12,1,14,25,9,46,7,10,1,7,19,23,1,41,1,2,9,5,8,7,8,0,20
9,17,79,14,3,20,9,2,22,12,17,17,25,12,11,4,31,26,2,26,40,26,38,13,15,0,34,28,53,10,59,5,3,10,5,11,13,13,0,20
22,46,163,14,13,47,16,8,63,48,34,29,32,25,17,49,81,48,11,47,66,42,114,24,40,0,40,80,75,6,95,8,7,16,16,42,12,47,0,20
16,26,67,9,15,25,21,2,30,16,23,14,11,5,22,22,41,23,5,29,60,31,51,17,22,0,15,23,31,2,62,6,3,27,21,24,19,18,0,20
21,27,72,10,16,13,16,1,46,12,7,26,12,18,4,4,29,49,4,50,40,31,56,12,13,0,16,36,47,9,55,6,4,17,7,20,12,12,0,20
5,45,63,10,3,34,7,1,26,4,21,4,6,6,9,17,19,19,1,21,26,50,73,11,15,0,10,25,32,4,59,3,10,6,11,18,3,13,1,20
6,26,82,12,3,20,16,5,35,21,24,13,19,6,2,3,25,14,3,25,34,13,64,13,23,0,22,28,34,1,54,5,3,12,4,31,9,24,0,20
17,23,74,10,2,9,15,3,25,17,20,11,16,10,12,14,31,17,5,20,31,20,41,18,13,4,7,36,50,7,51,5,4,14,10,14,16,22,0,20
9,39,50,10,23,32,11,1,50,14,22,14,21,26,5,9,30,20,5,28,64,23,67,8,16,0,3,29,37,2,53,7,8,12,23,13,7,34,4,20
17,27,51,2,4,25,15,1,39,4,8,9,5,3,8,12,31,17,0,18,16,28,62,23,23,0,1,24,24,1,41,13,1,10,6,9,12,7,0,20
13,28,80,14,8,12,13,2,48,17,21,32,17,9,13,15,27,31,1,22,27,25,57,11,18,0,15,38,46,10,49,2,1,1,8,21,2,37,0,20
6,14,50,7,1,13,5,2,17,14,13,13,4,11,3,7,4,22,1,8,20,16,28,1,8,0,7,12,14,2,32,2,4,17,3,14,16,7,0,20
35,34,111,11,12,30,13,6,52,35,36,32,12,29,20,34,45,66,5,46,57,42,62,10,15,0,19,96,78,4,80,2,19,42,31,26,23,46,0,20
13,36,111,16,15,32,12,3,45,37,27,28,20,23,17,21,40,35,6,25,44,35,86,15,15,0,24,46,72,3,82,6,7,19,12,15,22,31,0,20
21,35,100,3,6,24,16,6,42,22,9,18,9,12,14,16,37,26,16,22,43,21,63,27,12,2,30,44,48,4,41,15,3,18,19,8,2,22,0,20
13,17,80,8,2,6,13,5,30,12,7,19,9,7,7,23,29,20,2,23,28,18,47,10,8,3,9,25,37,4,32,5,6,8,14,8,1,19,0,20
14,18,44,2,6,20,13,10,21,8,12,15,11,9,8,7,30,17,5,9,18,22,46,13,7,0,6,15,29,2,35,5,2,6,13,14,7,21,0,20
9,28,66,10,13,37,10,1,46,15,10,24,13,11,6,9,39,8,1,19,33,28,62,19,12,2,10,25,31,4,42,5,5,26,12,34,25,22,0,20
8,23,55,8,2,26,14,2,31,13,12,16,9,15,3,5,35,10,1,19,34,15,38,15,8,1,12,26,34,3,41,8,0,1,8,9,0,17,0,20
14,36,77,12,7,30,13,5,52,12,12,17,21,15,13,25,37,38,11,29,40,26,62,19,10,5,11,35,48,4,45,5,6,10,23,30,3,34,0,20
13,42,103,21,7,20,15,2,41,21,32,11,18,19,18,22,52,29,7,44,50,53,63,18,36,0,11,54,48,2,71,1,9,21,15,21,27,18,0,20
21,11,53,9,2,17,10,2,21,10,12,17,14,40,7,3,27,32,2,30,47,14,42,4,4,0,16,31,22,1,53,4,8,30,10,9,17,14,0,20
6,42,106,9,6,22,11,3,62,16,29,27,17,11,13,9,33,33,3,23,38,34,71,9,21,0,8,36,75,7,72,8,2,21,18,22,11,28,4,20
11,29,73,6,7,15,13,3,39,26,23,14,13,7,24,7,26,30,2,24,30,30,53,15,8,1,16,34,40,4,48,2,6,4,4,11,5,17,0,20
9,28,72,8,2,16,10,5,30,21,12,10,19,9,6,7,31,22,3,28,39,16,53,14,21,0,7,33,21,4,46,3,5,32,15,11,29,17,0,20
21,13,55,5,2,19,8,2,21,9,10,9,10,8,7,7,22,37,0,17,38,35,27,13,6,2,25,13,26,11,36,6,2,2,5,9,0,17,0,20
10,22,62,15,0,26,15,1,43,22,20,17,16,7,4,25,20,34,0,21,29,40,57,14,17,0,26,21,35,1,30,0,0,14,7,17,0,18,0,20
28,25,84,11,6,32,22,10,38,19,19,18,6,16,13,12,38,30,7,26,45,26,64,18,12,0,12,39,37,7,66,10,11,32,15,27,30,21,1,20
9,24,69,6,10,28,9,7,32,20,6,13,7,13,7,10,20,29,1,22,35,22,45,9,9,2,3,29,32,4,34,6,2,6,17,12,5,32,0,20
28,23,103,7,3,15,11,8,49,22,20,33,20,24,13,17,31,37,3,25,55,33,60,14,12,3,16,43,44,9,51,5,1,8,16,16,4,36,0,20
25,32,75,14,7,27,19,5,49,15,15,16,20,16,15,15,40,40,4,32,39,28,68,13,22,1,14,42,46,5,70,6,9,13,9,16,18,25,0,20
11,22,96,10,4,27,15,2,40,26,16,14,15,16,6,22,29,50,0,22,52,39,52,11,7,0,11,47,49,2,47,2,6,11,16,17,14,27,1,20
5,28,61,12,6,26,6,5,39,28,25,15,6,9,1,27,22,24,2,22,30,27,54,7,14,0,10,34,35,6,41,4,6,12,5,22,4,34,0,20
5,26,46,5,2,24,5,0,43,16,19,13,8,19,6,13,17,17,1,19,15,21,45,4,11,0,6,27,28,1,21,2,5,18,6,16,21,9,0,20
41,22,74,12,4,20,20,4,50,16,11,11,12,4,22,16,24,38,4,14,50,28,57,2,16,0,11,33,49,0,47,0,8,14,20,16,13,10,0,20
8,11,58,2,4,36,12,0,28,24,8,19,4,14,5,12,19,11,5,15,35,22,40,2,19,0,5,27,23,0,24,0,0,11,17,7,1,11,0,20
9,11,75,10,7,24,6,2,31,14,26,7,9,15,12,5,25,29,10,20,35,22,45,10,8,0,15,29,30,2,56,5,4,14,7,13,14,11,0,20
17,23,90,29,8,21,15,6,36,14,13,26,9,11,8,3,38,47,7,52,39,43,53,8,17,1,23,35,46,2,81,6,11,20,9,12,15,28,0,20
13,33,75,8,5,5,16,3,41,23,15,15,9,6,16,14,20,23,0,23,27,22,51,2,14,0,4,23,23,3,34,4,2,4,22,10,4,38,0,20
39,27,80,8,3,20,19,1,43,18,16,20,6,7,33,6,29,28,2,18,28,23,55,13,16,1,2,36,30,3,58,1,1,4,17,27,7,14,0,20
16,8,47,1,4,18,16,5,14,21,17,17,11,13,3,20,31,18,2,24,20,19,43,8,12,1,2,27,27,3,27,2,2,1,4,13,1,16,0,20
7,16,65,12,8,14,11,0,11,19,16,7,14,10,4,24,21,25,6,11,23,20,20,12,12,0,4,20,35,2,69,5,6,41,4,24,31,11,0,20
11,13,69,19,5,41,19,8,29,20,26,18,26,11,6,11,40,33,1,18,23,26,61,16,10,0,11,43,36,0,57,5,0,2,16,29,2,40,0,20
33,81,229,40,12,60,51,14,111,65,48,57,52,61,35,16,110,65,11,78,104,100,149,35,33,3,45,114,85,12,144,16,5,18,28,42,10,68,2,20
1,4,45,7,6,21,5,1,5,13,6,6,18,14,7,0,22,17,0,19,23,18,27,7,11,0,12,18,28,3,56,3,7,7,0,7,5,17,0,20
17,18,77,5,4,23,15,3,33,10,15,15,25,12,10,23,43,33,4,27,34,33,43,25,14,0,10,34,31,8,46,6,11,10,11,20,13,24,1,20
19,29,80,6,7,13,10,4,36,23,17,17,2,12,13,16,32,37,2,23,39,12,44,13,13,0,15,14,43,18,75,3,1,12,7,13,3,25,0,20
22,20,62,8,3,40,25,3,44,10,13,11,11,14,2,4,27,38,1,25,36,30,52,7,24,0,7,33,40,5,64,4,14,19,14,17,24,13,0,20
23,18,67,3,2,36,18,1,34,27,24,15,6,4,2,1,30,24,2,20,41,13,57,11,12,8,8,40,40,4,47,10,1,14,15,13,15,10,0,20
11,35,131,16,8,35,15,3,65,30,23,29,15,30,8,24,47,28,12,33,43,32,82,21,29,0,13,48,45,5,60,9,8,15,19,34,13,32,0,20
19,26,89,3,4,26,11,1,24,29,24,6,15,8,24,9,24,17,7,14,38,13,52,16,20,1,22,24,55,11,66,1,1,28,9,9,20,10,0,20
4,39,65,12,3,20,11,0,27,34,29,16,20,11,5,16,29,20,2,35,21,28,77,10,17,0,7,33,20,1,52,5,0,13,16,14,7,22,0,20
14,25,74,20,10,11,12,3,35,17,15,16,15,14,11,8,25,12,8,28,41,14,71,15,16,0,9,37,36,6,57,6,4,32,15,4,31,26,1,20
29,25,78,5,3,27,15,7,41,14,17,13,10,7,12,14,25,37,2,17,37,21,67,6,10,0,19,35,33,5,50,12,11,5,17,19,6,29,0,20
22,15,123,15,5,33,11,3,33,23,30,14,13,18,9,16,30,30,11,24,61,38,32,9,17,0,12,50,54,7,69,3,3,12,23,22,15,38,0,20
14,36,77,12,7,30,13,5,52,12,12,17,21,15,13,25,37,38,11,29,40,26,62,19,10,5,11,35,48,4,45,5,6,10,23,30,3,34,0,20
7,15,32,8,4,20,16,3,14,2,18,10,9,14,3,12,29,23,3,13,20,22,35,17,4,0,8,30,34,5,51,5,7,13,6,7,16,4,1,20
9,42,109,20,7,20,25,1,47,43,35,53,19,33,4,77,43,72,3,35,45,40,63,19,11,0,6,58,56,17,51,9,4,13,10,29,4,60,0,20
12,13,79,12,14,16,16,1,38,18,17,16,7,20,11,17,51,18,0,28,30,20,57,15,13,0,8,34,28,3,53,3,5,23,11,17,26,13,0,20
8,15,52,9,0,20,5,1,23,12,13,16,10,11,7,11,22,23,5,18,31,12,35,9,15,1,9,34,26,2,31,4,4,5,12,18,4,15,0,20
11,21,58,3,6,20,7,3,23,5,18,15,9,15,3,34,23,40,0,23,26,31,51,7,13,0,8,18,39,12,38,0,0,1,7,13,1,31,0,20
3,17,43,4,6,33,11,2,28,11,14,14,7,11,4,7,10,20,0,21,23,17,45,2,21,0,4,23,19,1,45,1,2,6,6,25,2,16,0,20
7,17,51,10,4,12,8,4,27,16,15,15,13,16,8,17,15,27,3,13,26,13,46,8,9,1,11,23,18,2,34,0,5,7,6,10,4,15,0,20
12,24,62,7,2,23,10,1,29,13,17,17,13,13,8,12,33,28,3,21,26,26,53,24,11,0,14,20,43,6,39,8,0,8,10,11,8,14,0,20
5,35,87,33,2,15,15,4,67,13,13,9,17,8,36,10,57,34,7,31,40,20,75,19,10,0,20,25,45,3,57,9,4,6,18,19,5,20,1,20
6,15,76,9,4,20,8,7,27,8,9,6,9,13,5,5,21,19,4,11,35,10,42,9,6,1,8,15,23,2,30,11,6,4,25,6,1,21,0,20
27,29,64,7,14,46,31,1,30,39,16,16,15,9,20,13,26,22,2,26,42,15,63,6,16,0,13,36,38,6,89,3,10,16,18,15,13,14,0,20
10,21,70,6,11,14,16,3,40,17,17,7,18,18,5,13,39,37,6,22,35,34,48,6,20,1,18,23,61,12,55,6,5,17,13,12,9,15,0,20
17,45,89,14,12,19,24,5,55,21,27,24,19,11,5,22,35,35,3,34,35,24,89,12,9,0,15,42,53,6,51,4,3,12,16,23,8,37,0,20
3,39,58,8,9,8,13,0,37,11,14,36,19,12,6,19,27,34,1,28,34,20,66,9,5,0,8,21,24,11,25,4,1,4,10,11,11,36,1,20
10,17,67,7,8,19,8,2,29,22,14,10,14,3,4,10,20,11,2,33,35,20,46,8,14,1,16,26,28,1,39,2,0,17,3,21,15,23,0,20
1,18,31,2,4,15,3,0,25,8,2,12,4,9,1,16,14,18,1,7,14,11,21,12,2,0,5,12,16,4,32,8,1,2,1,16,2,9,0,20
8,21,62,0,4,27,29,5,38,15,22,24,11,10,8,8,33,27,0,12,26,32,51,10,10,2,7,24,27,4,35,6,1,1,13,6,1,23,0,20
8,31,56,9,13,31,20,1,43,18,34,14,24,12,8,18,19,44,9,19,45,23,64,4,10,0,11,36,33,1,53,5,11,23,11,25,29,21,1,20
8,19,71,17,0,18,16,4,22,19,20,25,9,7,9,19,29,26,5,22,47,20,52,9,12,0,10,46,35,3,36,11,0,11,4,11,9,17,0,20
13,15,47,13,0,10,10,0,24,21,7,10,6,6,4,10,17,11,1,21,12,17,34,7,5,0,7,32,12,2,17,4,6,14,8,8,13,9,0,20
13,10,43,9,4,23,11,2,17,14,13,7,7,10,3,20,26,27,3,12,36,15,34,7,4,1,4,24,22,2,29,2,2,10,7,11,5,18,0,20
17,42,102,17,7,61,22,2,59,29,27,10,16,9,5,28,34,34,5,20,36,26,73,10,17,0,8,31,43,1,99,8,2,19,13,33,16,35,0,20
6,21,82,26,0,36,19,1,47,8,22,15,11,4,9,4,23,8,3,18,40,13,65,23,2,0,9,42,33,3,43,11,0,4,26,3,0,26,0,20
4,12,51,6,0,12,3,9,25,13,5,7,13,4,1,4,38,14,8,16,26,19,34,23,5,0,6,24,19,1,13,2,0,3,5,14,1,18,0,20
13,15,50,5,7,12,11,2,23,9,11,13,4,18,11,10,38,25,0,15,42,20,33,21,11,0,5,18,14,1,43,8,6,9,14,12,9,6,0,20
7,27,89,12,6,28,9,2,44,12,48,20,10,13,2,33,26,42,14,40,62,34,67,18,14,0,6,34,64,1,60,5,10,8,12,20,11,16,0,20
37,26,74,9,14,32,13,3,50,22,20,9,20,10,15,11,50,19,7,50,44,25,67,23,13,0,8,51,44,3,58,11,11,11,16,19,17,36,1,20
10,26,62,3,3,14,12,6,28,22,28,7,24,3,4,9,32,34,4,19,30,29,41,14,14,0,6,35,39,2,38,4,2,18,11,42,11,36,0,20
10,17,62,11,3,23,9,1,26,15,16,16,9,9,3,12,28,19,2,20,32,31,42,6,5,2,10,40,31,5,50,5,12,28,10,14,32,16,0,20
23,20,87,21,4,22,13,3,23,26,26,14,8,15,10,6,25,16,8,32,35,16,50,14,12,0,12,42,34,4,75,6,6,19,18,15,30,17,0,20
11,12,66,3,4,10,5,1,21,6,5,9,12,8,2,6,16,12,2,17,23,14,37,1,5,0,9,18,21,3,33,3,0,3,11,12,0,23,0,20
5,5,25,4,1,16,4,4,29,1,8,18,12,1,2,7,31,20,1,6,25,6,37,13,15,0,2,18,17,1,42,1,4,21,11,23,20,7,0,20
11,24,79,10,5,19,12,5,31,22,21,16,8,10,7,14,40,33,7,34,46,24,41,19,3,5,20,29,31,0,55,9,4,16,5,13,5,27,0,20
17,44,109,15,7,30,13,2,68,41,31,45,29,10,10,27,31,39,0,26,39,27,117,13,24,0,24,34,82,9,49,4,7,11,6,29,9,25,3,20
31,55,102,23,9,14,18,5,94,26,14,19,25,15,11,9,39,45,1,33,76,66,112,25,9,0,13,66,31,8,41,11,7,4,12,17,1,22,0,20
21,50,104,9,12,27,34,5,86,29,26,34,20,24,17,24,52,51,3,36,75,32,85,25,27,3,23,50,66,12,78,6,5,20,11,15,8,48,0,20
7,27,81,6,2,28,22,0,25,10,33,23,9,24,10,11,23,33,5,22,50,27,25,11,12,0,19,43,31,15,75,3,4,17,22,13,15,34,0,20
11,4,43,0,0,21,8,1,20,10,4,8,17,21,3,18,8,10,0,5,34,10,15,3,4,0,3,7,7,1,11,0,0,18,17,20,1,15,0,20
5,26,51,5,5,45,17,1,19,12,10,6,8,12,5,10,25,13,1,34,39,13,38,19,14,0,9,17,19,4,33,3,5,10,13,4,1,4,0,20
30,77,190,19,13,52,32,9,95,47,57,38,37,37,21,19,81,61,10,65,98,62,146,27,23,0,23,65,89,18,107,7,7,17,29,40,18,59,1,20
17,20,46,7,3,42,10,2,40,9,9,10,24,5,5,18,42,27,2,25,10,22,36,14,11,2,9,29,32,10,39,0,11,1,15,20,1,8,0,20
14,18,48,6,2,5,7,5,18,15,11,11,5,9,6,9,17,19,0,16,31,14,37,6,16,0,10,28,26,4,33,3,4,11,13,7,14,13,1,20
14,25,80,11,11,24,17,12,41,23,31,20,10,12,13,17,30,52,5,35,47,15,65,10,16,0,20,57,32,6,49,2,7,17,6,25,9,42,0,20
28,25,84,11,6,32,22,10,38,19,19,18,6,16,13,12,38,30,7,26,45,26,64,18,12,0,12,39,37,7,66,10,11,32,15,27,30,21,1,20
11,24,36,4,0,11,4,3,32,8,13,9,24,9,5,13,13,18,3,27,32,25,38,8,11,0,2,20,21,1,33,2,4,16,10,7,17,16,0,20
17,27,77,2,9,13,15,3,42,13,17,31,20,11,9,19,28,31,2,27,39,27,64,16,11,2,11,31,39,10,44,8,3,6,19,12,3,35,0,20
8,17,51,10,4,13,8,4,27,16,15,15,13,16,8,17,14,27,3,13,25,13,46,8,8,1,11,23,17,2,34,0,5,7,7,10,4,15,0,20
10,5,37,2,1,3,7,0,15,4,6,15,7,8,8,7,7,9,4,8,15,15,27,1,11,0,3,19,10,0,33,1,6,6,9,5,11,9,0,20
26,55,211,22,19,53,32,7,83,52,53,52,37,37,19,29,58,61,14,74,102,35,138,22,32,2,34,88,130,6,139,8,9,19,28,35,20,50,0,20
11,30,85,8,6,21,14,3,48,26,15,29,21,16,22,15,27,29,1,25,41,25,60,8,17,0,15,41,35,4,47,12,5,13,8,15,5,28,1,20
13,17,68,6,24,14,13,7,42,34,25,25,11,15,2,9,28,36,17,19,44,13,78,12,24,17,12,24,35,4,36,4,4,7,13,10,3,14,0,20
9,6,29,0,1,21,15,0,32,3,8,2,13,5,5,13,25,17,2,9,19,18,40,0,35,0,4,18,12,1,17,6,4,18,5,25,14,14,0,20
0,0,4,0,0,0,2,0,0,0,2,1,1,0,0,0,0,1,0,0,1,2,0,0,0,0,0,1,1,0,2,0,0,0,0,0,0,0,0,20
8,18,47,13,1,17,4,3,30,14,10,9,11,7,3,14,22,31,3,23,26,30,35,9,5,1,15,26,30,1,30,4,7,5,6,10,3,11,0,20
