13,16,28,4,4,15,22,1,15,5,11,5,8,7,2,9,7,16,0,6,13,20,31,4,5,0,4,11,9,1,23,2,6,12,5,10,18,5,0,11
60,79,94,15,18,27,37,3,143,72,24,27,9,13,19,19,55,25,3,25,55,48,119,8,25,0,17,50,32,5,152,4,11,82,12,19,52,9,0,11
41,10,50,2,1,4,8,0,27,4,24,10,19,5,2,38,15,18,2,20,13,21,22,4,9,0,8,35,33,15,33,2,2,0,9,7,2,7,0,11
39,44,68,12,0,22,23,1,49,3,18,18,19,12,12,10,18,68,4,34,39,43,96,4,9,0,6,25,18,1,53,4,1,26,7,46,36,5,0,11
6,20,33,3,2,5,7,0,20,12,16,11,1,10,4,11,14,34,1,19,28,17,26,2,10,0,12,16,20,2,17,6,1,4,4,13,2,15,0,11
39,18,83,2,1,32,3,0,24,10,26,25,16,12,23,4,15,24,0,34,24,47,68,2,12,1,38,40,41,3,73,1,0,33,26,6,32,4,0,11
14,25,52,4,7,44,17,1,39,22,26,8,13,11,16,5,38,49,0,42,39,24,64,16,6,0,6,27,46,6,72,7,26,16,12,17,22,8,0,11
10,13,79,6,28,35,6,7,21,17,11,7,16,8,9,14,23,16,6,14,27,23,48,17,20,2,4,23,10,4,40,0,0,3,14,29,3,30,0,11
35,20,39,5,10,48,29,2,15,10,26,16,13,40,21,15,47,19,1,38,58,25,39,11,10,0,27,36,59,3,48,1,3,10,3,31,14,6,0,11
44,4,39,3,0,7,54,5,12,10,2,6,28,36,9,3,6,65,0,12,40,14,45,1,9,0,1,9,14,2,30,0,2,0,3,3,3,2,0,11
1,34,57,2,2,35,14,3,65,22,26,14,2,7,2,21,10,14,3,16,27,14,54,0,19,0,9,18,33,0,20,0,5,14,6,19,5,19,0,11
42,35,89,6,13,12,27,4,65,13,16,24,23,10,9,19,19,33,1,31,29,13,69,9,5,0,32,48,46,4,60,5,7,6,8,27,12,13,0,11
21,19,60,33,6,49,9,2,34,32,9,16,8,36,25,21,68,55,0,36,52,61,59,17,30,2,17,34,40,7,69,3,2,8,13,15,5,13,0,11
7,15,45,10,3,13,9,1,21,13,37,9,7,6,7,25,31,15,1,8,40,8,35,14,9,1,5,26,25,3,37,7,3,21,8,15,11,29,0,11
20,14,77,7,14,35,30,0,25,8,32,7,11,16,11,5,14,22,0,43,31,26,29,3,14,0,15,21,45,12,75,3,0,5,11,21,9,6,0,11
39,22,82,5,3,15,17,0,15,3,11,7,5,3,5,4,23,28,4,27,17,98,27,20,11,0,5,10,11,1,27,1,4,14,7,13,8,10,0,11
8,10,65,6,2,13,9,5,16,13,9,11,24,8,3,5,44,13,7,5,20,17,24,22,1,0,16,12,43,0,44,1,0,5,6,30,3,9,0,11
32,52,108,12,8,58,69,0,100,25,45,10,27,6,11,34,37,106,2,5,57,64,104,2,23,0,3,39,75,0,82,6,7,66,31,27,74,14,0,11
17,19,46,4,5,2,14,3,26,5,7,16,21,8,13,6,18,35,14,16,32,9,56,2,7,0,13,7,25,15,38,1,6,4,5,18,3,6,0,11
26,11,23,6,9,17,35,2,16,4,6,8,17,2,28,14,29,33,0,9,9,32,42,10,24,8,4,18,17,2,42,8,7,4,2,14,5,6,0,11
9,9,35,6,2,14,9,1,17,4,8,7,6,6,6,6,6,11,1,9,20,12,25,3,9,0,5,15,13,2,28,2,4,16,13,7,16,6,0,11
12,16,49,5,25,16,22,0,36,3,7,23,10,4,22,17,19,10,9,23,33,19,40,9,15,3,3,19,35,18,41,0,19,17,3,12,24,7,0,11
24,20,72,15,32,49,9,1,64,12,18,12,30,22,17,41,33,13,6,38,35,30,53,8,14,3,10,20,30,0,57,1,2,33,25,17,31,25,0,11
14,17,48,4,13,5,11,2,30,12,12,5,6,6,10,3,21,17,2,24,29,16,45,5,14,3,9,28,26,2,25,0,7,15,6,7,16,7,0,11
21,9,28,4,4,18,22,0,15,16,26,29,22,5,8,20,22,11,1,33,27,11,64,4,38,0,1,38,31,4,50,0,1,10,28,7,10,6,0,11
5,16,67,4,2,24,7,2,17,2,17,17,13,8,6,12,23,27,9,9,25,29,38,4,5,1,5,21,17,9,33,5,2,8,9,24,4,15,0,11
26,22,91,1,11,20,14,0,34,21,32,15,8,4,3,15,32,30,13,25,31,37,52,5,15,0,38,53,31,2,70,3,10,5,8,17,14,28,0,11
5,14,100,23,18,17,14,2,31,14,37,5,6,6,3,12,15,10,4,28,67,35,56,5,12,0,3,28,24,7,98,4,3,38,9,11,13,15,0,11
29,21,41,2,0,31,11,2,27,12,8,14,5,11,11,15,20,12,2,26,18,15,36,8,6,1,10,35,23,6,34,3,6,10,5,4,4,2,0,11
17,29,54,21,4,30,11,5,26,12,12,7,11,13,7,14,21,28,2,33,45,39,56,6,18,0,4,32,31,0,49,4,11,40,12,18,30,10,1,11
7,14,30,5,4,16,2,2,8,6,11,3,7,3,5,5,9,8,0,12,12,12,28,1,6,0,13,18,16,5,26,3,4,7,7,7,6,10,0,11
28,4,40,30,0,31,11,0,16,1,3,1,7,9,1,1,5,15,0,19,44,21,32,7,3,0,0,24,16,0,53,1,1,23,0,1,15,1,0,11
9,16,41,1,9,45,16,3,43,11,5,3,9,5,1,40,14,14,0,16,23,30,28,1,7,0,3,19,10,2,16,0,13,39,13,22,34,4,0,11
7,44,80,1,9,16,14,2,35,8,12,29,5,12,5,9,24,22,4,13,27,40,57,10,29,0,16,36,71,1,52,9,7,20,13,4,18,4,0,11
48,26,66,26,1,16,27,0,13,8,27,4,2,7,25,4,29,44,0,44,26,67,20,23,7,0,0,35,7,0,108,2,1,28,2,7,50,4,0,11
9,71,44,5,3,25,5,0,88,2,21,36,8,7,3,13,61,12,1,17,69,10,85,1,10,0,4,15,139,5,86,4,2,3,3,10,1,4,0,11
16,38,50,20,0,11,36,0,30,10,17,13,14,10,21,2,10,8,0,18,25,18,34,0,4,0,3,23,42,20,70,2,9,33,0,7,29,7,0,11
13,12,30,4,0,24,12,1,15,15,7,9,9,10,13,11,16,7,2,8,24,21,20,5,8,0,3,18,20,4,36,1,7,13,3,8,15,6,0,11
12,10,46,7,6,15,18,2,27,18,32,10,18,11,26,12,29,25,1,13,31,26,29,8,23,1,5,27,14,5,64,8,2,20,14,7,19,9,0,11
17,15,57,24,3,12,14,0,30,7,4,7,15,8,7,7,17,41,4,18,22,32,30,9,14,0,3,44,49,0,68,2,8,17,13,24,32,18,0,11
12,9,59,3,5,20,25,1,40,9,8,15,10,10,3,11,11,21,4,9,37,9,41,4,7,1,14,29,21,5,22,2,7,11,18,14,9,20,0,11
4,17,22,6,10,15,14,1,24,5,10,4,14,4,3,4,9,26,1,17,21,10,34,5,3,0,4,22,16,5,26,0,13,9,3,12,14,9,0,11
27,6,59,2,1,9,7,1,30,4,21,6,30,16,4,4,39,14,15,6,11,23,55,26,1,0,4,26,28,0,60,3,0,2,6,23,1,7,0,11
46,4,34,22,5,29,4,1,17,15,10,4,10,2,17,11,15,9,0,18,57,19,46,11,18,0,1,14,23,0,72,1,10,9,3,9,3,7,0,11
5,7,33,3,2,4,4,1,7,8,3,7,27,8,1,1,15,16,0,14,7,16,37,12,8,0,1,12,17,2,32,0,3,9,2,9,10,9,0,11
6,4,25,8,7,8,3,0,17,1,14,18,2,15,2,9,15,19,1,4,24,13,32,2,21,0,2,28,24,2,25,7,0,4,7,4,14,14,1,11
18,41,77,5,8,14,15,3,21,17,4,4,14,18,3,16,9,12,4,20,41,24,23,2,13,0,1,24,15,12,38,1,2,23,5,5,45,0,0,11
15,10,110,10,12,24,10,6,35,18,20,25,28,4,5,24,7,31,10,23,20,46,46,0,7,0,6,9,47,16,65,14,2,6,1,18,4,23,0,11
6,22,61,6,3,19,32,5,24,6,10,16,27,6,4,2,23,40,25,18,5,7,48,1,6,0,4,10,60,2,73,12,2,23,3,20,20,3,0,11
22,6,36,8,1,16,11,1,14,12,10,23,6,5,15,3,17,17,0,11,18,14,28,7,12,0,1,18,29,1,23,6,2,10,28,9,13,7,0,11
17,17,58,7,2,32,6,2,28,9,24,6,13,15,10,6,50,10,7,18,15,31,65,15,14,1,7,27,54,0,55,5,1,18,8,5,10,15,0,11
1,29,41,7,11,21,5,1,28,19,8,5,3,8,8,10,14,14,6,8,31,14,24,6,20,1,9,11,35,0,58,2,6,6,8,14,8,8,0,11
30,17,74,8,2,20,3,3,43,27,24,40,13,22,26,14,46,18,4,4,49,22,62,15,12,0,13,40,39,2,47,5,6,7,8,22,14,18,0,11
9,18,74,4,2,22,43,5,29,12,20,11,29,16,16,6,40,63,4,23,26,44,30,6,23,1,17,24,18,8,58,5,4,3,7,15,8,10,1,11
1,2,16,0,2,11,3,0,9,7,3,6,3,3,2,6,8,7,1,3,10,2,6,3,2,0,0,5,9,4,4,2,0,0,3,5,0,7,0,11
10,16,40,7,13,22,12,2,24,20,12,19,10,4,10,14,32,11,4,15,28,23,25,10,13,0,3,9,24,2,64,9,1,31,1,23,23,11,0,11
36,29,46,7,13,10,13,1,37,14,15,8,13,13,17,7,36,18,4,17,28,33,68,5,22,4,17,37,35,4,53,3,3,10,4,14,15,10,0,11
19,50,45,9,0,26,17,6,22,17,18,11,10,11,1,10,16,12,6,39,21,26,50,9,32,1,7,47,41,5,72,1,8,16,2,6,36,4,0,11
16,13,74,8,8,35,12,4,20,10,26,6,8,21,18,14,40,18,8,15,42,32,39,7,4,0,13,32,30,1,80,4,10,27,16,25,28,24,0,11
8,18,66,2,18,13,6,4,30,30,28,10,12,8,8,22,49,19,1,24,18,37,64,11,12,0,23,15,22,3,30,2,1,2,5,38,7,21,0,11
17,27,66,15,16,32,32,0,37,12,8,15,8,7,7,9,18,9,0,23,31,24,79,4,12,0,7,29,22,8,46,2,6,6,4,18,9,13,0,11
18,12,63,8,7,10,11,8,28,25,23,19,12,17,7,19,18,32,0,22,18,17,50,6,7,0,12,32,37,10,41,9,6,7,5,14,8,13,0,11
6,5,20,2,3,51,3,4,7,2,5,6,3,7,2,15,9,9,0,10,42,7,11,4,3,1,7,10,13,0,18,2,4,11,3,13,10,33,0,11
7,6,25,10,1,1,6,0,2,1,16,4,0,8,15,3,2,11,1,3,23,6,26,5,15,0,14,21,11,0,24,2,2,29,14,21,21,2,0,11
1,11,40,9,9,12,10,0,22,7,4,4,8,5,2,11,13,10,0,14,18,11,35,4,4,0,1,15,8,1,22,1,11,13,11,12,17,11,0,11
89,26,115,16,5,17,18,0,21,8,22,76,8,70,18,11,30,32,1,84,19,22,49,5,10,1,9,108,106,0,126,6,11,26,12,13,46,12,0,11
8,9,62,4,4,25,30,2,19,6,24,15,10,5,4,3,21,28,5,15,16,22,47,7,8,0,13,17,25,21,34,5,10,21,5,10,20,17,0,11
23,17,42,4,3,5,5,0,22,2,9,3,18,11,11,4,16,11,1,3,35,9,38,0,2,0,0,12,4,1,23,0,3,4,23,16,11,9,0,11
29,75,120,6,4,48,21,2,54,11,25,20,31,25,34,48,48,33,8,27,40,39,107,10,16,0,8,27,48,13,166,2,7,79,8,85,83,32,0,11
4,6,11,1,0,6,2,0,8,4,7,3,0,1,0,2,6,10,0,1,12,10,10,3,4,0,6,3,7,0,13,0,1,7,8,5,6,3,0,11
38,14,67,2,0,30,49,1,22,11,4,1,34,0,0,2,5,27,8,20,36,19,44,0,6,0,0,5,14,2,79,0,3,38,27,29,37,5,0,11
10,22,63,19,2,36,10,0,43,4,5,14,15,24,3,18,16,34,0,23,29,30,35,3,9,0,5,34,26,11,42,0,5,35,5,18,22,14,0,11
13,6,30,3,8,30,10,2,9,10,5,17,25,3,25,13,5,19,0,16,25,31,29,1,4,0,1,3,16,2,24,2,0,9,6,9,3,4,0,11
9,11,39,4,2,11,6,2,14,6,4,4,5,6,12,13,7,19,1,13,18,19,26,2,27,0,11,9,14,1,40,5,6,12,8,11,13,15,0,11
9,13,48,5,2,40,11,0,26,19,24,16,6,16,7,11,17,22,2,7,37,25,49,6,8,0,8,13,17,2,35,3,3,3,13,15,1,3,0,11
22,18,59,12,10,8,14,3,41,9,29,8,20,12,11,20,13,18,6,14,34,11,40,6,11,0,9,40,36,0,70,4,6,7,2,12,14,30,0,11
17,43,43,2,8,16,52,1,20,2,14,13,31,8,5,33,9,123,2,42,24,38,61,1,16,0,64,4,15,2,37,0,1,3,17,19,9,6,0,11
26,36,46,2,22,7,2,1,48,19,16,5,16,3,6,10,26,15,4,30,20,10,69,21,5,8,12,40,24,0,50,0,0,7,8,20,8,16,0,11
9,7,22,1,2,15,5,9,15,10,7,2,7,3,4,2,22,5,0,3,8,7,20,8,3,1,2,12,10,0,16,3,0,3,6,6,1,13,0,11
17,45,78,13,10,19,21,1,67,25,27,12,7,23,14,29,26,28,2,24,49,30,54,13,19,5,7,29,31,0,39,3,7,6,9,17,4,18,0,11
10,21,35,3,0,33,18,4,27,26,15,2,10,2,3,4,17,23,1,12,39,27,42,2,36,0,4,10,36,1,42,1,11,10,4,19,8,5,0,11
17,28,52,2,20,49,19,0,60,20,11,6,20,8,6,9,46,15,9,6,40,61,70,21,26,0,5,36,29,1,37,3,8,13,8,10,22,13,0,11
35,5,29,4,20,12,34,0,24,3,3,1,29,4,10,0,25,22,1,17,14,29,54,13,0,0,17,30,26,1,46,1,6,15,3,4,18,17,0,11
57,22,93,4,1,10,10,1,40,8,17,8,8,10,8,28,45,75,2,10,27,11,82,21,15,0,10,47,57,1,105,15,8,5,11,7,12,36,0,11
19,30,28,10,11,7,15,1,40,7,7,5,4,11,11,2,11,11,2,6,13,7,35,4,6,0,0,23,31,1,23,3,1,10,1,2,15,6,0,11
5,6,21,1,3,8,6,1,8,2,10,5,3,3,3,4,17,9,3,3,17,17,26,0,4,2,7,13,4,6,17,1,6,11,2,9,2,2,0,11
16,52,54,1,2,18,19,0,84,4,15,2,21,2,3,5,17,48,1,15,38,57,21,1,2,0,1,16,16,10,29,2,1,13,9,17,31,5,0,11
4,7,45,20,0,12,9,0,12,13,4,1,3,2,0,10,23,30,16,23,10,40,26,18,2,0,4,11,16,4,26,0,1,9,3,5,2,9,0,11
12,8,25,0,4,3,27,0,33,11,11,7,30,2,3,29,24,10,4,16,12,13,31,0,4,2,20,20,17,16,31,0,15,20,10,7,17,7,0,11
1,10,57,12,17,22,21,0,23,4,13,27,11,2,3,16,17,17,0,17,28,15,36,6,10,0,5,11,15,8,53,2,1,10,16,9,12,22,0,11
23,9,64,1,1,23,37,3,29,5,7,21,32,8,3,21,31,44,9,6,22,29,38,5,9,0,18,18,40,2,80,1,6,29,16,28,27,13,0,11
8,10,33,8,1,13,7,1,9,22,4,7,9,4,7,0,25,13,1,2,13,12,19,21,10,0,1,9,31,0,30,3,0,7,7,8,5,9,0,11
7,40,53,16,4,21,74,4,25,10,22,9,22,11,6,10,66,30,2,67,46,25,26,34,6,1,8,26,24,1,61,35,6,12,7,14,16,14,0,11
0,31,47,4,5,46,2,1,54,7,24,9,5,11,7,35,31,21,7,8,22,14,47,7,12,0,6,35,20,10,53,4,4,0,3,29,2,5,0,11
19,26,79,16,4,42,8,5,57,17,17,23,20,20,15,8,28,22,4,22,36,18,56,7,11,0,9,48,32,6,42,14,5,11,8,31,16,24,0,11
13,28,68,8,10,31,29,6,19,7,8,8,13,14,14,7,39,29,3,37,42,32,71,7,24,0,13,26,25,4,58,7,5,32,7,18,15,22,0,11
37,5,39,5,4,11,13,1,19,8,1,4,21,4,31,3,25,10,0,7,16,6,19,5,9,0,2,18,13,1,68,4,5,10,3,16,8,6,0,11
18,36,59,4,16,28,28,4,24,15,22,15,5,9,17,13,37,26,1,30,25,19,48,24,31,0,12,47,22,1,68,8,4,5,3,24,6,20,0,11
8,16,35,20,1,19,28,0,30,4,18,32,34,18,6,8,17,17,4,5,25,7,61,9,5,0,2,25,25,0,48,2,0,22,6,16,15,36,0,11
22,8,48,4,3,8,22,4,14,17,19,17,23,3,5,8,22,19,0,21,27,11,30,6,9,0,17,14,28,5,49,1,10,19,12,8,23,6,0,11
53,13,81,7,10,27,12,3,12,13,8,9,7,17,39,6,46,10,0,13,20,12,60,3,9,0,8,18,16,1,111,3,6,12,6,22,14,11,0,11
48,24,53,9,4,31,13,1,38,11,11,10,7,10,17,4,45,22,1,30,15,16,67,15,10,0,24,46,18,6,92,8,6,18,9,14,32,14,0,11
12,17,101,5,6,15,20,0,36,11,7,6,5,24,17,11,69,23,4,25,57,40,48,26,6,0,10,31,22,3,55,5,8,16,20,19,20,11,0,11
35,16,30,3,7,42,45,1,37,7,5,4,30,15,9,2,22,29,0,18,16,14,52,2,3,0,8,45,18,2,41,2,18,11,5,5,22,6,0,11
28,25,61,8,31,5,16,0,45,11,13,10,10,5,37,26,45,12,1,18,17,25,41,8,19,0,6,28,9,3,92,3,8,3,18,7,18,0,0,11
6,3,32,2,2,21,2,2,19,2,9,0,0,10,6,16,18,36,0,0,26,39,15,4,21,0,2,10,10,0,46,0,0,4,10,14,2,4,0,11
9,10,61,4,1,10,12,1,26,6,30,6,8,4,3,13,7,21,2,28,33,10,29,0,9,0,9,20,26,19,45,4,0,12,2,14,3,15,0,11
17,15,48,2,6,23,11,3,31,7,5,16,11,17,12,9,42,28,1,19,34,29,41,26,10,2,14,26,33,5,26,1,4,7,7,5,6,22,0,11
20,21,44,28,1,16,14,2,36,4,19,36,11,3,34,20,24,47,0,15,45,19,36,0,6,0,16,60,47,0,58,0,2,56,22,16,48,18,0,11
3,7,22,2,5,11,5,1,15,8,8,12,5,6,2,2,8,11,1,6,7,12,12,1,2,0,4,9,17,1,25,2,3,12,5,6,10,2,0,11
52,10,151,15,6,15,23,1,38,46,18,33,33,40,5,42,21,45,7,28,29,75,66,2,11,1,14,75,63,8,155,1,14,9,10,34,12,13,0,11
51,18,59,29,20,72,7,5,29,7,20,34,30,12,35,41,35,45,3,22,31,25,94,16,15,0,19,52,33,11,117,15,14,11,22,16,20,13,0,11
15,21,77,16,19,34,20,3,32,30,14,18,8,7,5,17,23,16,2,11,59,14,67,14,11,0,9,16,21,2,30,4,0,5,2,25,17,5,0,11
6,21,34,5,3,16,4,3,24,10,12,24,20,22,1,6,15,17,0,6,11,28,55,7,20,1,4,19,22,1,56,0,3,0,4,35,6,10,2,11
16,21,40,5,11,21,10,2,18,9,21,6,9,1,3,15,41,11,4,12,17,33,30,13,10,0,18,36,28,10,36,5,4,6,5,17,5,2,0,11
16,9,41,2,0,10,6,4,30,11,18,40,29,6,6,17,9,15,4,4,22,8,37,2,5,0,23,6,36,0,47,2,0,13,11,21,15,29,0,11
33,7,40,3,15,25,7,3,11,7,6,12,45,5,16,44,30,19,1,25,10,22,33,23,2,0,9,24,13,1,41,0,5,17,0,12,15,12,0,11
6,5,52,3,2,9,38,1,6,2,5,6,5,8,0,1,46,80,2,6,6,17,11,1,0,0,71,40,20,0,95,1,1,8,2,1,12,2,0,11
6,6,55,23,4,27,12,2,36,6,28,33,7,15,3,14,15,35,3,19,23,24,37,5,19,0,5,37,24,2,36,1,8,32,28,12,32,10,0,11
7,31,76,12,5,23,29,0,43,32,35,26,22,16,27,13,27,30,1,20,41,20,47,5,31,20,18,40,39,2,58,1,6,12,14,27,12,28,0,11
30,31,79,10,11,36,27,1,44,35,22,40,17,21,16,18,129,27,1,33,52,27,109,63,8,0,13,33,21,3,59,4,2,12,7,78,4,12,0,11
4,7,79,50,19,32,6,4,29,52,31,15,52,4,3,13,19,35,2,16,70,17,50,2,7,0,9,17,27,20,50,1,1,6,9,74,4,19,0,11
113,14,36,16,5,19,9,0,23,6,13,2,6,9,5,7,5,10,9,19,78,12,41,0,16,0,0,21,21,1,94,0,4,16,9,7,22,4,0,11
7,16,56,8,18,18,9,2,56,12,37,24,20,14,13,3,23,31,0,28,29,32,70,13,20,0,10,31,22,0,40,5,11,11,11,20,20,21,0,11
4,9,30,1,0,5,9,0,13,1,9,0,16,0,2,2,31,6,0,4,10,9,38,19,3,0,5,19,27,0,5,9,4,6,4,17,11,11,0,11
2,2,44,3,14,15,3,0,21,2,22,6,4,2,17,2,19,8,0,19,4,22,43,20,4,0,4,14,8,5,17,2,1,1,3,5,2,8,0,11
8,10,54,6,11,34,39,0,18,3,22,5,8,2,9,5,16,36,9,13,21,31,30,6,13,0,4,12,27,10,62,1,4,27,3,9,33,1,0,11
2,9,21,5,2,10,26,0,5,2,12,6,7,0,2,7,17,20,0,16,14,13,21,11,0,0,0,3,3,0,10,0,3,3,3,15,8,8,0,11
14,141,85,2,9,21,44,7,119,17,22,92,9,23,12,8,32,43,4,28,36,42,63,8,7,3,22,25,57,76,149,0,6,34,16,8,4,24,0,11
26,27,59,4,5,19,19,1,29,10,18,14,11,18,4,11,30,26,2,34,39,30,48,8,14,0,7,27,36,4,56,5,6,15,6,20,17,8,0,11
10,15,67,7,1,16,11,0,15,9,24,3,8,4,12,2,22,8,6,44,11,13,52,5,10,0,2,9,11,16,55,2,0,10,4,8,5,12,0,11
36,7,21,6,2,32,10,1,13,2,8,6,5,5,23,12,31,12,1,8,19,41,40,13,25,2,6,13,13,0,32,4,2,20,15,6,10,1,0,11
3,13,42,12,1,33,6,3,49,5,6,4,16,7,7,14,10,18,1,14,26,24,17,5,6,0,2,26,24,1,25,3,8,13,4,24,9,15,0,11
26,29,128,16,33,23,22,1,70,21,29,20,10,22,16,31,48,51,5,45,62,30,107,17,37,0,22,51,45,6,106,13,13,47,15,18,56,36,0,11
3,31,40,6,5,20,14,0,22,7,15,8,13,5,4,6,17,37,0,15,27,15,33,18,18,0,4,25,33,0,42,2,10,8,8,22,16,11,0,11
38,8,44,3,16,34,33,0,26,7,7,3,23,12,1,20,12,30,2,26,11,9,19,2,4,0,22,22,53,3,75,7,23,12,4,20,16,6,0,11
5,22,61,9,18,93,12,0,56,46,71,35,7,8,27,10,23,30,4,7,27,65,95,11,24,0,21,17,57,0,89,0,5,15,12,5,18,7,0,11
11,35,103,12,9,30,21,8,49,14,33,22,49,15,18,33,32,48,7,21,51,81,68,11,16,0,23,26,56,3,89,5,4,26,14,28,33,47,1,11
31,18,102,3,4,42,13,2,37,19,11,32,20,18,8,28,28,41,1,16,42,37,61,6,11,0,32,27,30,10,87,5,5,9,33,15,10,10,0,11
4,39,75,7,11,11,12,2,37,33,21,36,9,3,15,10,30,24,2,32,46,9,35,12,8,0,28,11,40,35,90,6,13,26,11,24,0,20,0,11
32,48,50,8,19,28,10,0,59,12,1,23,29,12,13,21,74,15,0,17,33,43,119,14,28,0,3,24,18,12,47,12,9,0,16,9,12,11,0,11
13,25,23,1,5,16,12,9,18,5,17,8,33,3,3,11,6,29,1,4,15,17,39,2,51,1,0,18,6,0,24,2,0,23,14,11,39,1,0,11
2,9,58,12,3,10,0,0,20,15,13,9,1,0,3,1,6,12,1,11,30,14,16,1,14,0,21,20,14,2,33,0,4,2,23,0,6,17,0,11
16,17,38,12,12,21,9,4,30,10,14,14,10,4,15,9,13,14,2,16,21,26,46,1,20,0,6,26,21,1,37,4,5,20,13,12,26,8,0,11
22,9,20,8,3,11,9,1,23,8,9,15,11,8,5,5,24,15,2,13,19,14,29,6,9,0,13,24,15,3,24,12,11,5,7,16,19,15,0,11
12,49,73,14,0,36,6,1,40,9,36,27,37,8,4,14,21,21,6,23,35,47,69,8,24,0,12,16,51,3,43,8,5,21,32,8,54,11,1,11
14,8,51,16,4,28,7,1,21,15,11,8,15,8,9,6,14,21,5,14,28,25,51,12,5,0,3,29,21,6,39,4,13,18,10,11,20,9,0,11
19,18,14,7,16,8,12,0,13,2,7,7,12,5,10,17,27,31,4,21,21,20,60,5,9,0,9,30,16,1,35,1,5,13,4,1,24,6,0,11
10,4,26,1,6,7,7,1,17,6,9,9,7,6,7,7,18,11,1,6,20,11,16,1,5,0,8,25,13,0,25,1,0,10,4,2,4,10,0,11
15,22,53,16,3,9,8,3,28,18,18,12,10,13,11,13,22,20,2,10,38,10,36,5,13,0,9,29,24,6,49,11,11,22,11,24,22,7,0,11
31,11,61,5,0,58,20,6,15,7,9,6,11,9,1,6,17,29,1,69,34,29,56,15,11,1,1,45,12,0,32,3,4,12,8,15,19,3,0,11
1,34,61,4,17,11,1,0,17,2,17,20,21,18,0,5,29,2,0,16,19,34,29,22,35,0,3,17,33,1,60,0,1,7,8,52,27,6,0,11
2,16,54,5,26,51,10,0,20,9,34,9,7,8,8,13,43,9,2,19,15,30,41,12,18,0,8,44,21,3,93,3,7,11,26,32,13,23,0,11
38,43,114,10,8,36,26,3,56,24,27,23,21,15,15,45,24,66,3,35,46,23,84,14,24,2,14,36,28,47,91,3,6,23,10,56,16,51,2,11
13,6,26,5,0,15,18,0,12,4,6,3,20,2,2,9,13,21,0,10,13,26,38,0,15,0,15,20,12,1,27,0,1,2,3,12,2,5,0,11
6,4,41,16,10,8,1,7,14,22,25,20,4,8,8,10,22,23,0,20,26,15,21,10,8,0,14,17,26,0,20,1,0,1,4,28,0,16,0,11
24,24,51,8,3,68,28,1,35,6,27,7,10,5,6,5,37,20,1,28,20,61,48,13,15,0,2,25,38,0,59,2,5,18,5,14,36,32,0,11
17,25,78,14,2,28,14,7,23,22,19,38,9,13,46,16,42,48,8,29,62,60,50,4,22,0,5,34,43,2,52,6,10,12,36,15,18,35,0,11
22,20,38,12,0,18,21,2,66,13,31,43,6,22,4,43,37,22,3,50,55,29,49,10,100,0,3,21,80,28,48,1,7,12,4,17,22,8,0,11
8,16,41,20,9,14,7,1,26,12,19,19,15,13,3,10,19,22,1,10,40,11,32,14,7,0,8,29,34,3,30,2,4,4,11,29,6,21,0,11
17,26,66,5,27,34,12,6,48,17,5,10,16,11,7,28,37,28,2,17,15,34,74,7,6,1,14,22,16,5,53,1,4,7,16,20,7,16,0,11
11,14,79,3,8,19,6,0,26,18,7,6,18,16,12,13,11,22,9,8,17,24,38,5,5,1,4,16,43,1,67,1,2,3,4,14,7,14,0,11
21,19,99,11,7,41,34,2,15,29,13,6,21,21,10,10,33,46,3,43,35,27,86,7,16,0,9,24,22,0,51,18,6,18,3,15,27,5,0,11
20,8,70,11,3,12,24,0,51,18,20,40,19,20,11,13,32,45,3,27,34,39,33,15,2,0,8,29,33,7,50,3,13,38,7,16,32,17,0,11
6,12,43,9,4,51,8,1,21,1,16,18,3,11,5,8,19,11,3,9,34,3,41,15,8,0,16,26,24,0,36,2,11,30,7,19,38,44,0,11
26,16,44,7,4,14,8,0,16,8,4,1,7,8,6,7,8,17,8,12,12,15,37,0,5,0,1,11,39,0,39,1,2,12,3,14,17,14,0,11
7,10,51,3,0,22,6,0,16,15,13,4,16,5,0,20,2,1,0,8,24,10,37,0,8,0,1,9,18,6,36,2,4,5,6,11,3,5,0,11
17,16,74,22,20,3,65,3,31,9,6,7,53,7,25,4,9,28,2,22,26,9,42,20,17,0,5,37,17,1,61,1,6,17,16,22,16,9,0,11
7,52,58,17,5,24,14,0,63,10,18,16,7,18,6,17,71,38,3,25,39,26,107,10,13,1,6,35,74,3,37,13,5,4,13,29,7,30,0,11
6,5,28,6,0,12,3,0,9,5,9,3,11,4,2,10,6,12,0,4,12,13,13,6,3,0,3,11,11,7,27,3,3,2,1,15,4,7,0,11
11,28,87,12,13,38,32,5,54,16,25,35,12,15,10,22,20,77,9,24,34,25,90,6,10,0,8,26,44,11,55,8,7,5,12,10,2,23,0,11
7,13,94,5,3,19,11,2,47,7,42,28,24,6,6,25,20,30,1,34,29,59,50,11,10,0,4,16,31,9,46,3,5,6,6,22,3,22,1,11
23,15,74,7,20,38,13,4,29,19,21,19,15,16,17,14,42,45,3,27,37,39,70,15,17,0,25,31,47,1,86,1,5,20,7,13,21,15,0,11
19,38,68,3,25,12,8,1,72,9,15,18,5,7,13,13,23,22,12,10,37,21,89,4,20,1,12,30,30,14,31,2,8,7,9,7,7,20,0,11
8,13,49,2,15,8,9,0,33,16,9,8,6,2,6,7,15,11,0,20,14,13,43,2,12,0,8,17,23,0,16,4,1,21,3,17,12,24,0,11
36,11,82,7,2,15,3,1,33,18,9,50,6,13,13,20,57,33,1,48,21,45,45,32,22,0,13,32,31,0,43,3,2,12,4,35,15,4,3,11
8,6,97,4,8,29,9,3,29,3,17,6,10,39,3,10,27,19,4,18,18,19,44,12,5,2,13,24,23,1,115,8,3,49,9,22,24,13,0,11
9,6,84,3,8,19,18,1,37,22,19,30,8,12,5,16,28,41,0,22,53,16,46,15,5,1,12,30,37,4,36,1,2,12,18,33,12,12,0,11
5,10,19,5,0,22,4,0,34,6,11,13,7,6,5,9,13,40,1,1,24,18,37,4,24,0,4,13,38,11,33,2,2,3,5,21,2,7,0,11
27,15,42,2,5,46,15,34,20,15,2,9,13,7,17,64,53,14,1,43,21,22,37,7,8,0,6,12,18,2,36,0,0,1,6,8,0,1,0,11
18,17,51,11,2,13,14,2,23,5,5,6,18,9,9,3,25,14,4,23,25,24,45,9,7,0,7,24,16,6,42,10,16,11,2,10,21,14,0,11
9,4,22,5,2,10,9,0,9,10,11,5,1,2,8,7,4,9,0,1,5,12,18,1,2,0,0,15,9,1,22,2,2,3,6,9,2,7,0,11
7,3,16,4,3,2,12,0,10,3,3,3,7,2,5,2,5,9,0,4,6,3,8,2,4,0,2,7,8,1,23,2,2,7,4,5,4,2,0,11
25,8,118,8,1,8,2,5,17,2,10,11,37,7,3,0,24,8,26,10,16,16,16,0,2,0,5,24,66,21,84,2,1,3,4,35,9,5,0,11
49,21,73,9,2,60,24,8,30,7,20,13,9,4,3,29,48,28,4,41,46,51,65,16,13,0,8,45,33,11,43,6,21,57,9,13,52,10,0,11
2,36,49,33,26,34,13,0,16,32,13,4,6,1,7,28,46,16,0,8,34,32,30,30,17,0,7,45,65,1,65,1,1,9,25,18,17,34,0,11
8,23,50,5,3,17,18,0,24,26,23,7,7,7,3,14,17,6,2,29,32,5,40,4,7,0,14,25,28,3,29,5,1,11,5,15,9,15,0,11
36,36,167,14,2,39,40,21,70,26,53,26,23,23,6,23,53,71,6,30,51,48,105,20,18,0,29,72,67,6,129,16,5,36,33,34,17,24,0,11
8,24,95,10,6,7,12,3,40,33,24,32,23,12,12,17,29,18,4,34,54,11,31,22,10,1,17,46,47,1,62,17,9,6,18,13,5,19,0,11
19,8,31,16,1,17,9,0,29,9,17,4,8,7,6,6,15,22,1,8,26,15,35,18,8,0,5,21,12,0,33,7,3,16,8,22,16,8,0,11
18,20,43,10,4,24,8,2,38,12,16,8,13,19,8,9,23,11,0,16,27,21,42,10,6,0,2,21,18,1,36,0,5,8,4,14,3,15,0,11
21,23,63,3,12,19,16,3,30,26,16,6,11,10,15,6,23,33,11,17,19,27,65,2,19,0,7,16,25,6,70,5,0,24,19,24,16,10,0,11
44,7,29,3,0,29,26,0,32,4,1,4,13,10,13,31,6,29,0,12,51,17,35,0,47,0,1,5,18,1,43,1,3,35,4,15,43,0,0,11
35,27,88,9,8,37,25,3,51,11,27,17,10,24,10,10,49,61,4,14,58,31,86,9,6,0,15,54,26,1,86,7,12,38,18,32,48,12,0,11
10,18,32,1,3,16,16,0,14,10,22,25,2,4,11,14,15,14,0,7,20,20,30,5,10,0,4,4,13,3,30,4,1,17,22,6,14,5,0,11
5,72,103,4,4,70,8,2,75,5,1,11,5,4,4,65,34,9,1,6,11,8,24,6,2,0,3,11,12,5,89,22,3,29,9,28,31,11,0,11
22,14,38,8,9,27,11,3,19,11,7,6,5,12,6,4,16,21,1,15,19,18,41,4,10,0,8,19,27,3,68,3,3,16,4,6,12,8,0,11
12,23,30,14,4,19,7,1,21,13,12,11,9,9,2,13,26,20,1,22,21,26,43,12,10,0,4,21,32,3,39,2,1,11,3,10,12,10,0,11
8,12,31,4,6,23,17,0,17,8,8,10,6,13,8,5,22,6,1,3,19,14,26,7,2,0,2,15,13,1,22,2,3,17,15,9,15,10,0,11
9,4,69,27,1,16,10,1,20,25,12,4,8,27,3,26,12,8,1,30,13,12,23,5,5,0,4,5,35,4,49,0,23,1,3,4,0,3,0,11
20,13,55,17,4,44,18,6,25,7,10,9,14,11,5,29,33,15,4,17,43,36,49,24,14,1,10,22,44,1,40,4,2,40,11,23,23,6,0,11
0,6,68,2,2,10,6,0,10,7,38,25,11,5,2,16,7,31,0,44,32,18,34,6,17,0,2,37,19,20,5,0,0,7,16,11,5,30,0,11
30,42,146,9,4,58,34,4,32,13,34,13,15,10,27,22,80,56,1,32,38,35,106,4,13,0,9,29,79,5,134,2,2,16,20,65,25,23,0,11
6,10,29,4,4,17,1,0,5,13,7,13,6,7,1,5,8,24,0,11,27,10,20,4,7,0,13,25,19,1,32,2,2,9,8,6,11,10,0,11
12,15,57,18,8,37,25,5,63,28,29,16,11,20,2,5,23,16,3,15,31,9,47,3,13,0,9,38,32,4,50,0,5,40,12,10,30,24,0,11
27,14,96,31,24,8,16,1,43,20,10,10,3,12,18,25,33,14,9,45,23,21,52,11,23,0,5,12,22,12,60,1,2,24,6,22,18,11,0,11
7,7,29,14,18,20,66,1,15,3,13,9,31,6,3,1,8,32,0,11,14,16,13,4,6,0,3,18,12,2,40,4,3,10,15,8,22,2,0,11
4,11,25,2,3,6,3,1,10,1,12,38,15,21,18,9,20,15,0,10,14,5,18,14,2,0,1,11,12,5,36,0,0,3,3,18,1,11,0,11
12,17,33,2,2,22,7,0,15,1,3,2,14,14,3,1,5,8,0,20,7,28,23,3,5,0,0,18,7,0,38,0,1,23,1,4,28,3,0,11
8,18,37,14,4,21,14,0,32,11,10,21,18,21,17,15,3,16,6,5,29,15,51,2,14,0,2,20,17,6,51,1,3,31,2,8,24,16,0,11
5,9,64,11,15,4,12,1,22,18,14,18,3,18,17,8,32,11,1,15,27,18,70,7,23,0,5,30,20,0,20,6,9,12,9,4,21,8,0,11
18,17,51,7,8,6,37,0,19,12,10,23,28,9,3,6,28,25,6,19,26,19,53,8,16,0,8,28,19,0,44,17,8,37,11,17,18,15,0,11
11,17,25,1,2,9,3,2,20,2,2,9,1,9,8,9,15,10,3,19,15,10,33,7,10,0,8,8,20,3,25,1,2,8,3,6,3,4,0,11
30,21,90,21,7,6,13,1,25,38,18,8,4,12,13,2,51,33,0,20,41,20,100,12,44,0,13,40,39,12,78,8,5,2,5,25,29,9,0,11
2,4,21,2,0,9,4,0,1,7,1,1,7,0,0,1,0,16,0,14,11,5,3,0,6,0,0,3,13,0,8,0,0,23,8,6,19,10,0,11
5,5,32,1,5,19,9,1,8,2,2,5,6,6,4,3,18,2,1,4,27,9,17,2,2,0,0,13,6,0,26,2,1,9,5,6,9,6,0,11
27,10,27,6,4,24,13,0,19,5,7,16,6,7,5,6,5,25,5,14,25,17,41,2,5,0,12,20,14,1,57,0,2,14,5,17,18,11,0,11
30,9,48,6,6,21,9,3,23,8,9,8,7,8,11,6,9,13,3,21,8,18,49,2,1,0,8,23,14,7,43,4,5,25,7,12,28,10,0,11
27,6,27,11,1,20,4,11,27,5,13,5,3,11,4,4,11,12,0,9,24,22,42,5,38,0,6,20,11,0,16,0,4,1,0,7,5,6,0,11
9,12,71,5,1,19,5,1,14,11,16,8,4,3,28,6,27,37,0,32,34,23,44,9,27,0,1,8,24,12,49,5,4,7,10,23,3,8,0,11
23,18,94,4,3,16,7,0,33,8,22,14,10,9,38,9,53,22,3,15,20,34,47,14,20,0,12,24,37,24,65,2,4,21,10,9,16,18,0,11
16,11,30,5,0,16,13,7,33,6,16,10,26,6,11,16,22,21,5,12,17,21,54,7,6,0,1,17,21,7,30,6,12,33,5,18,18,17,0,11
13,7,51,1,6,40,13,0,37,8,24,14,7,9,5,14,26,18,3,14,33,30,34,12,12,0,14,16,22,11,40,4,4,5,3,14,4,4,0,11
8,14,49,8,0,20,5,0,22,5,18,22,33,14,9,8,24,13,27,12,14,19,44,9,6,0,1,45,41,0,50,4,1,10,4,7,11,32,0,11
10,5,41,11,5,21,35,2,17,12,23,21,14,4,19,4,24,33,3,8,31,23,36,1,11,0,15,21,47,3,85,2,7,42,7,6,31,14,0,11
5,34,58,6,15,9,3,0,53,6,5,8,5,6,2,4,25,20,3,9,24,34,46,7,19,0,23,34,21,2,28,2,15,10,14,9,24,10,0,11
21,16,122,28,5,12,11,1,36,12,34,16,19,14,13,27,43,36,9,17,22,44,60,31,20,2,16,56,77,8,93,23,10,12,9,26,18,18,0,11
12,14,46,2,7,12,10,2,18,11,17,11,9,13,3,7,25,13,2,17,25,13,44,11,9,5,15,29,27,3,38,1,3,5,5,6,0,15,0,11
14,20,44,4,2,6,5,0,15,10,13,11,6,12,17,5,28,12,1,26,26,17,35,2,24,0,11,23,31,1,48,0,8,13,1,13,11,8,0,11
54,17,54,7,20,25,38,1,80,4,17,5,33,13,30,6,19,81,1,14,50,31,89,0,20,0,51,38,20,1,115,3,1,38,20,20,28,21,0,11
13,13,164,21,19,22,24,1,44,29,13,52,15,7,6,7,13,31,7,56,42,11,62,7,3,0,36,22,42,4,65,5,2,6,39,5,6,19,0,11
17,26,47,7,5,70,16,4,62,5,16,14,25,15,39,13,41,18,0,19,43,26,58,9,34,1,13,25,40,5,56,5,4,11,8,39,14,29,0,11
16,15,71,11,5,29,35,5,24,4,24,44,12,23,5,6,44,72,1,16,32,34,82,1,12,0,26,39,24,2,79,3,12,13,35,8,17,13,0,11
14,28,54,39,2,31,6,3,33,24,34,26,9,22,49,3,39,23,4,19,75,19,59,8,15,0,5,24,19,6,80,0,2,6,8,6,3,3,1,11
31,14,31,2,6,10,19,2,32,4,21,19,11,4,12,11,16,25,0,19,10,8,56,10,5,0,4,27,16,1,38,1,6,13,14,15,15,9,0,11
21,10,55,13,2,12,9,0,13,9,10,5,12,20,5,18,18,13,1,20,14,14,28,7,8,0,10,17,22,4,61,2,1,12,4,11,20,9,0,11
24,27,126,18,5,39,17,5,44,20,32,35,14,12,13,21,14,53,6,17,41,48,85,8,18,0,9,31,43,18,85,5,3,12,23,24,13,24,1,11
6,22,37,3,1,11,26,2,29,11,11,6,13,5,25,7,53,13,1,18,51,13,22,1,24,0,5,15,4,1,41,15,5,46,0,23,48,1,0,11
17,2,10,4,0,3,7,3,8,7,6,0,4,0,11,5,4,12,0,1,7,13,5,0,2,0,3,9,8,0,26,0,2,23,8,4,14,1,0,11
46,20,41,2,3,15,14,6,69,16,4,29,20,0,1,25,17,10,0,22,22,5,39,1,17,1,12,62,17,4,63,2,6,60,6,19,22,5,0,11
29,13,37,5,3,35,11,0,12,1,19,7,7,9,4,4,9,17,0,26,38,28,38,5,4,0,0,8,4,2,37,0,0,11,7,15,17,3,0,11
32,19,58,7,9,22,27,3,23,15,5,10,19,5,25,4,26,54,1,24,52,52,58,6,36,0,8,37,19,2,77,1,1,11,4,7,8,12,0,11
44,13,50,6,1,5,4,7,12,3,4,5,9,5,12,3,0,4,2,9,47,8,34,0,5,0,3,21,6,7,27,0,0,10,7,4,10,7,0,11
8,15,106,6,1,22,19,1,54,4,48,32,14,11,6,25,15,70,1,19,28,48,84,10,12,1,6,20,60,7,92,2,9,7,15,4,13,5,0,11
16,22,70,13,11,23,14,0,52,14,12,14,23,5,16,14,21,22,3,17,14,22,55,7,13,0,5,28,34,0,56,5,6,12,3,37,20,23,0,11
11,18,82,12,3,16,7,1,42,25,23,46,23,16,14,33,42,22,6,14,37,26,35,12,16,0,16,44,33,12,63,8,7,14,13,8,11,27,0,11
30,27,47,5,6,19,5,0,32,10,11,8,21,8,9,12,21,18,4,31,34,26,59,6,14,3,5,24,25,2,66,1,10,19,4,17,23,7,0,11
5,19,49,6,10,41,20,1,40,11,16,21,20,10,9,10,37,38,6,9,24,47,39,16,7,0,4,15,34,3,57,13,4,24,5,36,25,8,0,11
3,9,24,1,1,25,2,0,16,3,7,5,15,4,1,7,9,17,7,5,22,22,21,0,1,0,5,12,13,1,17,2,5,1,11,8,6,8,0,11
18,12,74,0,5,9,12,1,17,23,48,35,8,10,21,17,19,31,4,6,30,9,45,6,11,0,7,28,67,1,88,12,5,14,17,51,8,28,0,11
28,39,58,9,11,17,42,7,51,17,18,9,10,18,9,15,25,22,2,37,43,17,47,12,31,1,13,44,30,4,51,4,14,19,13,13,37,16,1,11
